{
  "本": {
    "numbers": [
      [1, "いっぽん"],
      [2, "にほん"],
      [3, "さんぼん"],
      [4, "よんほん"],
      [5, "ごほん"],
      [6, "ろっぽん"],
      [7, "ななほん"],
      [8, "はっぽん"],
      [9, "きゅうほん"],
      [10, "じゅっぽん"]
    ],
    "images": [
      "/svg/water.svg",
      "/svg/tree.svg",
      "/svg/pen.svg",
      "/svg/umbrella.svg"
    ]
  },
  "杯": {
    "numbers": [
      [1, "いっぱい"],
      [2, "にはい"],
      [3, "さんばい"],
      [4, "よんはい"],
      [5, "ごはい"],
      [6, "ろっぱい"],
      [7, "ななはい"],
      [8, "はっぱい"],
      [9, "きゅうはい"],
      [10, "じゅっぱい"]
    ],
    "images": ["svg/coffee.svg", "svg/glass.svg"]
  },
  "個": {
    "numbers": [
      [1, "いっこ"],
      [2, "にこ"],
      [3, "さんこ"],
      [4, "よんこ"],
      [5, "ごこ"],
      [6, "ろっこ"],
      [7, "ななこ"],
      [8, "はっこ"],
      [9, "きゅうこ"],
      [10, "じゅっこ"]
    ],
    "images": ["svg/apple.svg", "svg/orange.svg"]
  },
  "枚": {
    "numbers": [
      [1, "いちまい"],
      [2, "にまい"],
      [3, "さんまい"],
      [4, "よんまい"],
      [5, "ごまい"],
      [6, "ろくまい"],
      [7, "ななまい"],
      [8, "はちまい"],
      [9, "きゅうまい"],
      [10, "じゅうまい"]
    ],
    "images": ["svg/cd.svg", "svg/paper.svg", "svg/pullover.svg"]
  }
}
